Section 7 Easier analysis with the tidyverse | Matilda Intro to R Workshop
…
You can do things like:

Mean-centering scores separately for males and females:

cow %>%
    group_by(sex) %>%
    mutate(
        extraversion_centered = extraversion - mean(extraversion)
    )

## # A tibble: 1,421 x 5
## # Groups:   sex [2]
##    neuroticism extraversion sex    volunteer extraversion_centered
##          <int>        <int> <fct>  <fct>                     <dbl>
##  1          16           13 female no                        0.578
##  2           8           14 male   no                        1.69 
##  3           5           16 male   no                        3.69 
##  4           8           20 female no                        7.58 
##  5           9           19 male   no                        6.69 
##  6           6           15 male   no                        2.69 
##  7           8           10 female no                       -2.42 
##  8          12           11 male   no                       -1.31 
##  9          15           16 male   no                        3.69 
## 10          18            7 male   no                       -5.31 
## # ... with 1,411 more rows
…
